{
    "KPlugin": {
        "Description": "KOrganizer Time and Date Configuration",
        "Description[ar]": "ضبط الوقت والتّاريخ لِ‍«منظّمك»",
        "Description[az]": "KOrganizer vaxt və tarix tənzimləməsi",
        "Description[bg]": "Настройка на дата и час за KOrganizer",
        "Description[ca@valencia]": "Configureu la data i hora de KOrganizer",
        "Description[ca]": "Configuració de la data i hora del KOrganizer",
        "Description[cs]": "Nastavení data a času pro KOrganizer",
        "Description[de]": "KOrganizer-Einstellungen für Zeit/Datum",
        "Description[en_GB]": "KOrganizer Time and Date Configuration",
        "Description[eo]": "KOrganizer Tempa kaj Data Agordo",
        "Description[es]": "Configuración de la fecha y hora de KOrganizer",
        "Description[eu]": "«KOrganizer»ren Ordua eta Data konfigurazioa",
        "Description[fi]": "KOrganizerin aika-asetukset",
        "Description[fr]": "Configuration de la date et l'heure de KOrganizer",
        "Description[gl]": "Configuración da hora e a data de KOrganizer.",
        "Description[he]": "הגדרות שעה ותאריך של KOrganizer",
        "Description[ia]": "Configuration de horas e datas in KOrganizer",
        "Description[id]": "Konfigurasi Waktu dan Tanggal KOrganizer",
        "Description[it]": "Configurazione data e ora di KOrganizer",
        "Description[ka]": "KOrganizer-ში თარიღისა და დროის მორგება",
        "Description[ko]": "KOrganizer 시간 및 날짜 설정",
        "Description[nl]": "KOrganizer datum en tijd instellingen",
        "Description[pl]": "Ustawienia daty i czasu dla KOrganizera",
        "Description[pt]": "Configuração da Data e Hora no KOrganizer",
        "Description[pt_BR]": "Configuração de data e hora do KOrganizer",
        "Description[ru]": "Настройка даты и времени",
        "Description[sl]": "Nastavitev časa in datuma v KOrganizerju",
        "Description[sv]": "Inställning av Korganizers tid och datum",
        "Description[tr]": "K Organizatör Tarih ve Saat Yapılandırması",
        "Description[uk]": "Налаштування часу і дати в KOrganizer",
        "Description[x-test]": "xxKOrganizer Time and Date Configurationxx",
        "Description[zh_CN]": "KOrganizer 时间和日期配置",
        "Description[zh_TW]": "KOrganizer 時間與日期設定",
        "Icon": "preferences-system-time",
        "Name": "Time and Date",
        "Name[ar]": "الوقت والتّاريخ",
        "Name[az]": "Vaxt və Tarix",
        "Name[bg]": "Дата и час",
        "Name[bs]": "Vrijeme i datum",
        "Name[ca@valencia]": "Hora i data",
        "Name[ca]": "Hora i data",
        "Name[cs]": "Datum a čas",
        "Name[da]": "Tid og dato",
        "Name[de]": "Zeit und Datum",
        "Name[el]": "Ώρα και Ημερομηνία",
        "Name[en_GB]": "Time and Date",
        "Name[eo]": "Tempo kaj Dato",
        "Name[es]": "Fecha y hora",
        "Name[et]": "Kellaaeg ja kuupäev",
        "Name[eu]": "Ordua eta data",
        "Name[fi]": "Aika ja päiväys",
        "Name[fr]": "Date et heure",
        "Name[ga]": "Am agus Dáta",
        "Name[gl]": "Hora e data",
        "Name[he]": "שעה ותאריך",
        "Name[hu]": "Dátum és idő",
        "Name[ia]": "Hora e data",
        "Name[id]": "Waktu dan Tanggal",
        "Name[it]": "Data e ora",
        "Name[ja]": "日付と時間",
        "Name[ka]": "თარიღი და დრო",
        "Name[kk]": "Уақыт пен Күн",
        "Name[km]": "កាលបរិច្ឆេទ និង​ពេលវេលា",
        "Name[ko]": "날짜와 시간",
        "Name[lt]": "Laikas ir data",
        "Name[lv]": "Laiks un datums",
        "Name[mai]": "समय आओर दिनांक",
        "Name[mr]": "दिनांक व वेळ",
        "Name[nb]": "Dato og klokkeslett",
        "Name[nds]": "Tiet un Datum",
        "Name[nl]": "Datum en tijd",
        "Name[nn]": "Dato og klokkeslett",
        "Name[pa]": "ਟਾਈਮ ਅਤੇ ਮਿਤੀ",
        "Name[pl]": "Czas i data",
        "Name[pt]": "Hora e Data",
        "Name[pt_BR]": "Data e hora",
        "Name[ro]": "Oră și dată",
        "Name[ru]": "Дата и время",
        "Name[sk]": "Čas a dátum",
        "Name[sl]": "Čas in datum",
        "Name[sr@ijekavian]": "Вријеме и датум",
        "Name[sr@ijekavianlatin]": "Vrijeme i datum",
        "Name[sr@latin]": "Vreme i datum",
        "Name[sr]": "Време и датум",
        "Name[sv]": "Tid och datum",
        "Name[th]": "เวลาและวันที่",
        "Name[tr]": "Saat ve Tarih",
        "Name[ug]": "ۋاقىت ۋە چېسلا",
        "Name[uk]": "Час і дата",
        "Name[wa]": "Eure et date",
        "Name[x-test]": "xxTime and Datexx",
        "Name[zh_CN]": "时间和日期",
        "Name[zh_TW]": "時間與日期"
    },
    "X-DocPath": "korganizer/config.html#config-main-time-and-date",
    "X-KDE-Weight": 200
}
